<define-tag pagetitle>DSA-4340-1 chromium-browser</define-tag>
<define-tag report_date>2018-11-18</define-tag>
<define-tag secrefs>CVE-2018-17478</define-tag>
<define-tag packages>chromium-browser</define-tag>
<define-tag isvulnerable>yes</define-tag>
<define-tag fixed>yes</define-tag>
<define-tag fixed-section>no</define-tag>

#use wml::debian::security



</dl>
