<define-tag pagetitle>DSA-4641-1 webkit2gtk</define-tag>
<define-tag report_date>2020-3-16</define-tag>
<define-tag secrefs>CVE-2020-10018</define-tag>
<define-tag packages>webkit2gtk</define-tag>
<define-tag isvulnerable>yes</define-tag>
<define-tag fixed>yes</define-tag>
<define-tag fixed-section>no</define-tag>

#use wml::debian::security



</dl>
