<define-tag pagetitle>DLA-1089-1 irssi</define-tag>
<define-tag report_date>2017-9-5</define-tag>
<define-tag secrefs>CVE-2017-10965 CVE-2017-10966 Bug#867598</define-tag>
<define-tag packages>irssi</define-tag>
<define-tag isvulnerable>yes</define-tag>
<define-tag fixed>yes</define-tag>
<define-tag fixed-section>no</define-tag>

#use wml::debian::security

