<define-tag pagetitle>DLA-980-1 ming</define-tag>
<define-tag report_date>2017-6-6</define-tag>
<define-tag secrefs>CVE-2017-8782</define-tag>
<define-tag packages>ming</define-tag>
<define-tag isvulnerable>yes</define-tag>
<define-tag fixed>yes</define-tag>
<define-tag fixed-section>no</define-tag>

#use wml::debian::security

