<define-tag pagetitle>DLA-2163-1 tinyproxy</define-tag>
<define-tag report_date>2020-03-31</define-tag>
<define-tag secrefs>CVE-2017-11747 Bug#870307 Bug#948283</define-tag>
<define-tag packages>tinyproxy</define-tag>
<define-tag isvulnerable>yes</define-tag>
<define-tag fixed>yes</define-tag>
<define-tag fixed-section>no</define-tag>

#use wml::debian::security

