<define-tag pagetitle>DLA-2070-1 ruby-excon</define-tag>
<define-tag report_date>2020-01-19</define-tag>
<define-tag secrefs>CVE-2019-16779 Bug#946904</define-tag>
<define-tag packages>ruby-excon</define-tag>
<define-tag isvulnerable>yes</define-tag>
<define-tag fixed>yes</define-tag>
<define-tag fixed-section>no</define-tag>

#use wml::debian::security

