<define-tag pagetitle>DLA-2053-1 otrs2</define-tag>
<define-tag report_date>2020-01-01</define-tag>
<define-tag secrefs>CVE-2019-18179</define-tag>
<define-tag packages>otrs2</define-tag>
<define-tag isvulnerable>yes</define-tag>
<define-tag fixed>yes</define-tag>
<define-tag fixed-section>no</define-tag>

#use wml::debian::security

