<define-tag pagetitle>DLA-1571-1 firefox-esr</define-tag>
<define-tag report_date>2018-11-7</define-tag>
<define-tag secrefs>CVE-2018-12389 CVE-2018-12390 CVE-2018-12392 CVE-2018-12393 CVE-2018-12395 CVE-2018-12396 CVE-2018-12397</define-tag>
<define-tag packages>firefox-esr</define-tag>
<define-tag isvulnerable>yes</define-tag>
<define-tag fixed>yes</define-tag>
<define-tag fixed-section>no</define-tag>

#use wml::debian::security

