<define-tag pagetitle>DLA-1391-1 tiff</define-tag>
<define-tag report_date>2018-5-31</define-tag>
<define-tag secrefs>CVE-2017-11613 CVE-2018-5784 Bug##869823 Bug##890441</define-tag>
<define-tag packages>tiff</define-tag>
<define-tag isvulnerable>yes</define-tag>
<define-tag fixed>yes</define-tag>
<define-tag fixed-section>no</define-tag>

#use wml::debian::security

