<define-tag pagetitle>DLA-1373-1 php5</define-tag>
<define-tag report_date>2018-5-9</define-tag>
<define-tag secrefs>CVE-2018-10545 CVE-2018-10547 CVE-2018-10548</define-tag>
<define-tag packages>php5</define-tag>
<define-tag isvulnerable>yes</define-tag>
<define-tag fixed>yes</define-tag>
<define-tag fixed-section>no</define-tag>

#use wml::debian::security

