<define-tag pagetitle>DSA-4538-1 wpa</define-tag>
<define-tag report_date>2019-9-29</define-tag>
<define-tag secrefs>CVE-2019-13377 CVE-2019-16275 Bug#934180 Bug#940080</define-tag>
<define-tag packages>wpa</define-tag>
<define-tag isvulnerable>yes</define-tag>
<define-tag fixed>yes</define-tag>
<define-tag fixed-section>no</define-tag>

#use wml::debian::security



</dl>
