<define-tag pagetitle>DSA-4448-1 firefox-esr</define-tag>
<define-tag report_date>2019-5-22</define-tag>
<define-tag secrefs>CVE-2018-18511 CVE-2019-5798  CVE-2019-7317  CVE-2019-9797 CVE-2019-9800  CVE-2019-9816  CVE-2019-9817  CVE-2019-9819 CVE-2019-9820  CVE-2019-11691 CVE-2019-11692 CVE-2019-11693 CVE-2019-11698</define-tag>
<define-tag packages>firefox-esr</define-tag>
<define-tag isvulnerable>yes</define-tag>
<define-tag fixed>yes</define-tag>
<define-tag fixed-section>no</define-tag>

#use wml::debian::security



</dl>
