<define-tag pagetitle>DLA-551-1 phpmyadmin</define-tag>
<define-tag report_date>2016-7-17</define-tag>
<define-tag secrefs>CVE-2016-5731 CVE-2016-5733 CVE-2016-5739</define-tag>
<define-tag packages>phpmyadmin</define-tag>
<define-tag isvulnerable>yes</define-tag>
<define-tag fixed>yes</define-tag>
<define-tag fixed-section>no</define-tag>

#use wml::debian::security

